Time	commandId	nodeType	extAddr	shortAddr	softVersion	channelMask	panId	workingChannel	parentShortAddr	lqi	rssi	boardType	sensorSize	battery	temperature	light	bmp180_temperature	altitude	acc_X	acc_Y	acc_Z	magnetic_X	magnetic_Y	magnetic_Z	acc2_X	acc2_Y	acc2_Z	gyroscope_X	gyroscope_Y	gyroscope_Z	ozone0	ozone1	ozone2	ozone3	ozone4	ozone5	AirTemperature	AirHumidity	captionType	captionSize	caption
2017-01-24 20:12:26	1	2	0x6CAB661800000100	0x8145	0x01010100	0x00002000	0x1234	13	0x0000	0	0	1	12	4342	26.5	16	0.0	44330.0	0	0	0	0	0	0	0	0	0	0	0	6	0	0	0	0	0	0	-39.63	-4.0	32	11	Edu_0145_O2
2017-01-24 20:13:08	1	2	0x6CAB661800000100	0x8145	0x01010100	0x00002000	0x1234	13	0x0000	0	0	1	12	4364	27.0	62	0.0	44330.0	0	0	0	0	0	0	0	0	0	0	0	2	5	0	0	0	0	0	-39.63	-4.0	32	11	Edu_0145_O2
2017-01-24 20:13:19	1	2	0x6CAB661800000100	0x8145	0x01010100	0x00002000	0x1234	13	0x0000	0	0	1	12	8896	27.0	51	0.0	44330.0	0	0	0	0	0	0	0	0	0	0	0	3	6	0	0	0	0	0	-39.63	-4.0	32	11	Edu_0145_O2
2017-01-24 20:13:29	1	2	0x6CAB661800000100	0x8145	0x01010100	0x00002000	0x1234	13	0x0000	0	0	1	12	8896	27.0	50	0.0	44330.0	0	0	0	0	0	0	0	0	0	0	0	4	5	0	0	0	0	0	-39.63	-4.0	32	11	Edu_0145_O2
2017-01-24 20:13:39	1	2	0x6CAB661800000100	0x8145	0x01010100	0x00002000	0x1234	13	0x0000	0	0	1	12	8896	26.5	46	0.0	44330.0	0	0	0	0	0	0	0	0	0	0	0	5	2	0	0	0	0	0	-39.63	-4.0	32	11	Edu_0145_O2
2018-04-13 17:35:08	1	2	0xC0A5661800000100	0x8324	0x01010100	0x00200000	0x1234	21	0x0000	255	-68	1	12	8533	24.0	0	0.0	44330.0	0	0	0	0	0	0	0	0	0	0	0	86	69	65	10	22	0	0	23.3	32.9	32	11	Raptor_N324
2018-04-13 17:35:10	1	2	0xB2A5661800000100	0x8326	0x01010100	0x00200000	0x1234	21	0x0000	255	-54	1	12	8137	24.0	0	0.0	44330.0	0	0	0	0	0	0	0	0	0	0	0	61	0	22	18	50	0	0	23.4	32.7	32	11	Raptor_N326
2018-04-13 17:35:12	1	2	0xD3F1661800000100	0x8322	0x01010100	0x00200000	0x1234	21	0x0000	255	-60	1	12	8643	24.0	0	0.0	44330.0	0	0	0	0	0	0	0	0	0	0	0	131	8	22	168	179	0	0	23.6	29.9	32	11	Raptor_N322
2018-04-13 17:35:15	1	0	0x0008671800000100	0x0000	0x01010100	0x00200000	0x1234	21	0xffff	0	0	1	12	4309	25.0	42	0.0	44330.0	0	0	0	0	0	0	0	0	0	0	0	3	0	0	0	0	0	0	0.0	0.0	32	11	Raptor_C326
2018-04-13 17:35:15	1	2	0xAFAA661800000100	0x8320	0x01010100	0x00200000	0x1234	21	0x0000	255	-54	1	12	8445	24.0	0	0.0	44330.0	0	0	0	0	0	0	0	0	0	0	0	189	113	120	98	110	0	0	23.3	33.5	32	11	Raptor_N320
2018-04-13 17:35:19	1	2	0xC0A5661800000100	0x8324	0x01010100	0x00200000	0x1234	21	0x0000	255	-61	1	12	8555	24.0	0	0.0	44330.0	0	0	0	0	0	0	0	0	0	0	0	87	70	66	10	22	0	0	23.3	32.9	32	11	Raptor_N324
2018-04-13 17:35:20	1	2	0xB2A5661800000100	0x8326	0x01010100	0x00200000	0x1234	21	0x0000	255	-60	1	12	8137	24.0	0	0.0	44330.0	0	0	0	0	0	0	0	0	0	0	0	62	0	22	19	51	0	0	23.4	32.7	32	11	Raptor_N326
2018-04-13 17:35:22	1	2	0xD3F1661800000100	0x8322	0x01010100	0x00200000	0x1234	21	0x0000	255	-54	1	12	8621	24.0	0	0.0	44330.0	0	0	0	0	0	0	0	0	0	0	0	132	8	23	169	179	0	0	23.6	29.9	32	11	Raptor_N322
2018-04-13 17:35:24	1	0	0x0008671800000100	0x0000	0x01010100	0x00200000	0x1234	21	0xffff	0	0	1	12	4309	25.0	49	0.0	44330.0	0	0	0	0	0	0	0	0	0	0	0	4	0	0	0	0	0	0	0.0	0.0	32	11	Raptor_C326
2018-04-13 17:35:24	1	2	0xAFAA661800000100	0x8320	0x01010100	0x00200000	0x1234	21	0x0000	255	-58	1	12	8445	24.0	0	0.0	44330.0	0	0	0	0	0	0	0	0	0	0	0	190	112	120	99	110	0	0	23.3	33.5	32	11	Raptor_N320
2018-04-13 17:35:29	1	2	0xC0A5661800000100	0x8324	0x01010100	0x00200000	0x1234	21	0x0000	255	-61	1	12	8533	24.0	0	0.0	44330.0	0	0	0	0	0	0	0	0	0	0	0	88	72	68	11	22	0	0	23.3	32.9	32	11	Raptor_N324
2018-04-13 17:35:30	1	2	0xB2A5661800000100	0x8326	0x01010100	0x00200000	0x1234	21	0x0000	255	-60	1	12	8137	24.0	0	0.0	44330.0	0	0	0	0	0	0	0	0	0	0	0	63	0	23	22	53	0	0	23.4	32.6	32	11	Raptor_N326
2018-04-13 17:35:31	1	2	0xD3F1661800000100	0x8322	0x01010100	0x00200000	0x1234	21	0x0000	255	-54	1	12	8643	24.0	0	0.0	44330.0	0	0	0	0	0	0	0	0	0	0	0	133	9	22	169	178	0	0	23.6	29.9	32	11	Raptor_N322
2018-04-13 17:35:34	1	0	0x0008671800000100	0x0000	0x01010100	0x00200000	0x1234	21	0xffff	0	0	1	12	4309	25.0	48	0.0	44330.0	0	0	0	0	0	0	0	0	0	0	0	5	0	0	0	0	0	0	0.0	0.0	32	11	Raptor_C326
2018-04-13 17:35:34	1	2	0xAFAA661800000100	0x8320	0x01010100	0x00200000	0x1234	21	0x0000	255	-55	1	12	8445	23.5	0	0.0	44330.0	0	0	0	0	0	0	0	0	0	0	0	191	112	120	99	110	0	0	23.3	33.5	32	11	Raptor_N320
2018-04-13 17:35:36	1	2	0x29E6000000000000	0xe629	0x00000009	0x00200000	0x1234	21	0x0000	255	-77	1	12	8280	26.0	2250	0.0	44330.0	12524	0	0	0	0	0	0	0	0	0	0	82	65	76	64	72	0	0	23.9	30.6	32	12	uSu_Air_6629
2018-04-13 17:35:40	1	2	0xC0A5661800000100	0x8324	0x01010100	0x00200000	0x1234	21	0x0000	255	-60	1	12	8533	24.0	0	0.0	44330.0	0	0	0	0	0	0	0	0	0	0	0	89	71	68	13	22	0	0	23.3	32.8	32	11	Raptor_N324
2018-04-13 17:35:40	1	2	0xB2A5661800000100	0x8326	0x01010100	0x00200000	0x1234	21	0x0000	255	-60	1	12	8137	24.0	0	0.0	44330.0	0	0	0	0	0	0	0	0	0	0	0	64	0	23	23	54	0	0	23.3	32.5	32	11	Raptor_N326
2018-04-13 17:35:42	1	2	0xD3F1661800000100	0x8322	0x01010100	0x00200000	0x1234	21	0x0000	255	-53	1	12	8621	24.0	0	0.0	44330.0	0	0	0	0	0	0	0	0	0	0	0	134	11	23	169	178	0	0	23.6	29.9	32	11	Raptor_N322
2018-04-13 17:35:44	1	0	0x0008671800000100	0x0000	0x01010100	0x00200000	0x1234	21	0xffff	0	0	1	12	4309	25.0	40	0.0	44330.0	0	0	0	0	0	0	0	0	0	0	0	6	0	0	0	0	0	0	0.0	0.0	32	11	Raptor_C326
2018-04-13 17:35:45	1	2	0xAFAA661800000100	0x8320	0x01010100	0x00200000	0x1234	21	0x0000	255	-57	1	12	8467	24.0	0	0.0	44330.0	0	0	0	0	0	0	0	0	0	0	0	192	112	119	100	110	0	0	23.2	33.4	32	11	Raptor_N320
2018-04-13 17:35:47	1	2	0x29E6000000000000	0xe629	0x00000009	0x00200000	0x1234	21	0x0000	255	-77	1	12	8280	26.0	2250	0.0	44330.0	12524	0	0	0	0	0	0	0	0	0	0	83	64	76	63	72	0	0	23.9	30.7	32	12	uSu_Air_6629
2018-04-13 17:35:47	1	2	0x92F1661800000100	0x8068	0x01010100	0x00200000	0x1234	21	0x0000	255	-56	1	12	6993	24.0	0	0.0	44330.0	0	0	0	0	0	0	0	0	0	0	0	13956	144	147	158	145	0	0	23.1	30.7	32	10	Raptor_N68
2018-04-13 17:35:50	1	2	0xC0A5661800000100	0x8324	0x01010100	0x00200000	0x1234	21	0x0000	255	-63	1	12	8555	24.0	0	0.0	44330.0	0	0	0	0	0	0	0	0	0	0	0	90	73	70	14	22	0	0	23.3	32.8	32	11	Raptor_N324
2018-04-13 17:35:50	1	2	0xB2A5661800000100	0x8326	0x01010100	0x00200000	0x1234	21	0x0000	255	-62	1	12	8126	24.0	0	0.0	44330.0	0	0	0	0	0	0	0	0	0	0	0	65	0	23	27	55	0	0	23.4	32.6	32	11	Raptor_N326
2018-04-13 17:35:52	1	2	0xD3F1661800000100	0x8322	0x01010100	0x00200000	0x1234	21	0x0000	255	-54	1	12	8643	24.0	0	0.0	44330.0	0	0	0	0	0	0	0	0	0	0	0	135	11	22	169	178	0	0	23.6	29.8	32	11	Raptor_N322
2018-04-13 17:35:54	1	0	0x0008671800000100	0x0000	0x01010100	0x00200000	0x1234	21	0xffff	0	0	1	12	4309	25.0	27	0.0	44330.0	0	0	0	0	0	0	0	0	0	0	0	7	0	0	0	0	0	0	0.0	0.0	32	11	Raptor_C326
2018-04-13 17:35:55	1	2	0xAFAA661800000100	0x8320	0x01010100	0x00200000	0x1234	21	0x0000	255	-54	1	12	8445	24.0	0	0.0	44330.0	0	0	0	0	0	0	0	0	0	0	0	193	112	120	99	110	0	0	23.3	33.4	32	11	Raptor_N320
2018-04-13 17:35:57	1	2	0x29E6000000000000	0xe629	0x00000009	0x00200000	0x1234	21	0x0000	255	-68	1	12	8280	26.0	2250	0.0	44330.0	12524	0	0	0	0	0	0	0	0	0	0	84	65	77	65	72	0	0	23.9	30.6	32	12	uSu_Air_6629
2018-04-13 17:36:00	1	2	0xC0A5661800000100	0x8324	0x01010100	0x00200000	0x1234	21	0x0000	255	-65	1	12	8555	24.0	0	0.0	44330.0	0	0	0	0	0	0	0	0	0	0	0	91	73	71	16	23	0	0	23.3	32.7	32	11	Raptor_N324
2018-04-13 17:36:00	1	2	0xB2A5661800000100	0x8326	0x01010100	0x00200000	0x1234	21	0x0000	255	-60	1	12	8137	24.0	0	0.0	44330.0	0	0	0	0	0	0	0	0	0	0	0	66	0	22	27	56	0	0	23.4	32.5	32	11	Raptor_N326
2018-04-13 17:36:02	1	2	0xD3F1661800000100	0x8322	0x01010100	0x00200000	0x1234	21	0x0000	255	-55	1	12	8643	24.0	0	0.0	44330.0	0	0	0	0	0	0	0	0	0	0	0	136	11	22	168	177	0	0	23.6	29.8	32	11	Raptor_N322
2018-04-13 17:36:04	1	0	0x0008671800000100	0x0000	0x01010100	0x00200000	0x1234	21	0xffff	0	0	1	12	4309	25.0	22	0.0	44330.0	0	0	0	0	0	0	0	0	0	0	0	8	0	0	0	0	0	0	0.0	0.0	32	11	Raptor_C326
2018-04-13 17:36:05	1	2	0xAFAA661800000100	0x8320	0x01010100	0x00200000	0x1234	21	0x0000	255	-54	1	12	8445	24.0	0	0.0	44330.0	0	0	0	0	0	0	0	0	0	0	0	194	113	120	100	111	0	0	23.2	33.3	32	11	Raptor_N320
2018-04-13 17:36:08	1	2	0x29E6000000000000	0xe629	0x00000009	0x00200000	0x1234	21	0x0000	255	-68	1	12	8280	26.0	2250	0.0	44330.0	12524	0	0	0	0	0	0	0	0	0	0	85	64	76	64	71	0	0	23.9	30.5	32	12	uSu_Air_6629
2018-04-13 17:36:10	1	2	0xC0A5661800000100	0x8324	0x01010100	0x00200000	0x1234	21	0x0000	255	-63	1	12	8533	24.0	0	0.0	44330.0	0	0	0	0	0	0	0	0	0	0	0	92	74	72	16	23	0	0	23.3	32.7	32	11	Raptor_N324
2018-04-13 17:36:10	1	2	0xB2A5661800000100	0x8326	0x01010100	0x00200000	0x1234	21	0x0000	255	-57	1	12	8126	24.0	0	0.0	44330.0	0	0	0	0	0	0	0	0	0	0	0	67	0	22	30	59	0	0	23.4	32.4	32	11	Raptor_N326
2018-04-13 17:36:12	1	2	0xD3F1661800000100	0x8322	0x01010100	0x00200000	0x1234	21	0x0000	255	-54	1	12	8643	24.0	0	0.0	44330.0	0	0	0	0	0	0	0	0	0	0	0	137	11	22	169	177	0	0	23.6	29.8	32	11	Raptor_N322
2018-04-13 17:36:14	1	0	0x0008671800000100	0x0000	0x01010100	0x00200000	0x1234	21	0xffff	0	0	1	12	4309	25.0	28	0.0	44330.0	0	0	0	0	0	0	0	0	0	0	0	9	0	0	0	0	0	0	0.0	0.0	32	11	Raptor_C326
2018-04-13 17:36:16	1	2	0xAFAA661800000100	0x8320	0x01010100	0x00200000	0x1234	21	0x0000	255	-56	1	12	8445	24.0	0	0.0	44330.0	0	0	0	0	0	0	0	0	0	0	0	195	113	121	99	111	0	0	23.3	33.3	32	11	Raptor_N320
2018-04-13 17:36:19	1	2	0x29E6000000000000	0xe629	0x00000009	0x00200000	0x1234	21	0x0000	255	-70	1	12	8280	26.0	2250	0.0	44330.0	12524	0	0	0	0	0	0	0	0	0	0	86	64	76	65	72	0	0	23.9	30.3	32	12	uSu_Air_6629
2018-04-13 17:36:21	1	2	0xC0A5661800000100	0x8324	0x01010100	0x00200000	0x1234	21	0x0000	255	-60	1	12	8555	24.0	0	0.0	44330.0	0	0	0	0	0	0	0	0	0	0	0	93	75	72	19	23	0	0	23.3	32.7	32	11	Raptor_N324
2018-04-13 17:36:21	1	2	0xB2A5661800000100	0x8326	0x01010100	0x00200000	0x1234	21	0x0000	255	-62	1	12	8137	24.0	0	0.0	44330.0	0	0	0	0	0	0	0	0	0	0	0	68	0	22	33	60	0	0	23.4	32.4	32	11	Raptor_N326
2018-04-13 17:36:23	1	2	0xD3F1661800000100	0x8322	0x01010100	0x00200000	0x1234	21	0x0000	255	-54	1	12	8643	24.0	0	0.0	44330.0	0	0	0	0	0	0	0	0	0	0	0	138	13	23	169	178	0	0	23.6	29.8	32	11	Raptor_N322
2018-04-13 17:36:24	1	0	0x0008671800000100	0x0000	0x01010100	0x00200000	0x1234	21	0xffff	0	0	1	12	4309	25.0	40	0.0	44330.0	0	0	0	0	0	0	0	0	0	0	0	10	0	0	0	0	0	0	0.0	0.0	32	11	Raptor_C326
2018-04-13 17:36:26	1	2	0xAFAA661800000100	0x8320	0x01010100	0x00200000	0x1234	21	0x0000	255	-54	1	12	8445	23.5	0	0.0	44330.0	0	0	0	0	0	0	0	0	0	0	0	196	114	121	100	111	0	0	23.2	33.2	32	11	Raptor_N320
2018-04-13 17:36:29	1	2	0x29E6000000000000	0xe629	0x00000009	0x00200000	0x1234	21	0x0000	255	-79	1	12	8280	26.0	2250	0.0	44330.0	12524	0	0	0	0	0	0	0	0	0	0	87	64	76	65	72	0	0	23.9	30.2	32	12	uSu_Air_6629
2018-04-13 17:36:30	1	2	0xC0A5661800000100	0x8324	0x01010100	0x00200000	0x1234	21	0x0000	255	-63	1	12	8533	24.0	0	0.0	44330.0	0	0	0	0	0	0	0	0	0	0	0	94	77	74	20	24	0	0	23.3	32.8	32	11	Raptor_N324
2018-04-13 17:36:31	1	2	0xB2A5661800000100	0x8326	0x01010100	0x00200000	0x1234	21	0x0000	255	-69	1	12	8137	24.0	0	0.0	44330.0	0	0	0	0	0	0	0	0	0	0	0	69	0	22	35	62	0	0	23.4	32.3	32	11	Raptor_N326
2018-04-13 17:36:33	1	2	0xD3F1661800000100	0x8322	0x01010100	0x00200000	0x1234	21	0x0000	255	-54	1	12	8621	24.0	0	0.0	44330.0	0	0	0	0	0	0	0	0	0	0	0	139	14	23	168	178	0	0	23.6	29.8	32	11	Raptor_N322
2018-04-13 17:36:34	1	0	0x0008671800000100	0x0000	0x01010100	0x00200000	0x1234	21	0xffff	0	0	1	12	4309	25.0	37	0.0	44330.0	0	0	0	0	0	0	0	0	0	0	0	11	0	0	0	0	0	0	0.0	0.0	32	11	Raptor_C326
2018-04-13 17:36:36	1	2	0xAFAA661800000100	0x8320	0x01010100	0x00200000	0x1234	21	0x0000	255	-54	1	12	8445	23.5	0	0.0	44330.0	0	0	0	0	0	0	0	0	0	0	0	197	113	121	101	111	0	0	23.2	33.1	32	11	Raptor_N320
2018-04-13 17:36:40	1	2	0x29E6000000000000	0xe629	0x00000009	0x00200000	0x1234	21	0x0000	255	-67	1	12	8280	26.0	2250	0.0	44330.0	12524	0	0	0	0	0	0	0	0	0	0	88	64	76	64	71	0	0	23.9	30.2	32	12	uSu_Air_6629
2018-04-13 17:36:41	1	2	0xB2A5661800000100	0x8326	0x01010100	0x00200000	0x1234	21	0x0000	255	-60	1	12	8159	24.5	0	0.0	44330.0	0	0	0	0	0	0	0	0	0	0	0	70	0	22	36	63	0	0	23.3	32.2	32	11	Raptor_N326
2018-04-13 17:36:41	1	2	0xC0A5661800000100	0x8324	0x01010100	0x00200000	0x1234	21	0x0000	255	-66	1	12	8533	24.0	0	0.0	44330.0	0	0	0	0	0	0	0	0	0	0	0	95	77	74	21	24	0	0	23.3	32.8	32	11	Raptor_N324
2018-04-13 17:36:43	1	0	0x0008671800000100	0x0000	0x01010100	0x00200000	0x1234	21	0xffff	0	0	1	12	4309	25.0	23	0.0	44330.0	0	0	0	0	0	0	0	0	0	0	0	12	0	0	0	0	0	0	0.0	0.0	32	11	Raptor_C326
2018-04-13 17:36:51	1	2	0x29E6000000000000	0xe629	0x00000009	0x00200000	0x1234	21	0x0000	255	-78	1	12	8280	26.0	2250	0.0	44330.0	12524	0	0	0	0	0	0	0	0	0	0	89	63	76	65	72	0	0	23.9	30.2	32	12	uSu_Air_6629
2018-04-13 17:36:51	1	2	0xB2A5661800000100	0x8326	0x01010100	0x00200000	0x1234	21	0x0000	255	-60	1	12	8126	24.0	0	0.0	44330.0	0	0	0	0	0	0	0	0	0	0	0	71	0	22	38	63	0	0	23.4	32.2	32	11	Raptor_N326
2018-04-13 17:36:52	1	2	0xC0A5661800000100	0x8324	0x01010100	0x00200000	0x1234	21	0x0000	255	-72	1	12	8533	24.0	0	0.0	44330.0	0	0	0	0	0	0	0	0	0	0	0	96	78	76	23	24	0	0	23.3	32.7	32	11	Raptor_N324
2018-04-13 17:36:53	1	0	0x0008671800000100	0x0000	0x01010100	0x00200000	0x1234	21	0xffff	0	0	1	12	4309	25.0	8	0.0	44330.0	0	0	0	0	0	0	0	0	0	0	0	13	0	0	0	0	0	0	0.0	0.0	32	11	Raptor_C326
2018-04-13 17:36:55	1	2	0xD3F1661800000100	0x8322	0x01010100	0x00200000	0x1234	21	0x0000	255	-63	1	12	8621	24.0	0	0.0	44330.0	0	0	0	0	0	0	0	0	0	0	0	141	16	23	167	176	0	0	23.6	29.7	32	11	Raptor_N322
2018-04-13 17:36:56	1	2	0xAFAA661800000100	0x8320	0x01010100	0x00200000	0x1234	21	0x0000	255	-57	1	12	8445	24.0	0	0.0	44330.0	0	0	0	0	0	0	0	0	0	0	0	199	114	121	102	111	0	0	23.2	33.0	32	11	Raptor_N320
2018-04-13 17:40:06	1	2	0xB2A5661800000100	0x8326	0x01010100	0x00200000	0x1234	21	0x0000	255	-54	1	12	8126	24.0	0	0.0	44330.0	0	0	0	0	0	0	0	0	0	0	0	90	0	22	60	81	0	0	23.3	32.7	32	11	Raptor_N326
2018-04-13 17:40:06	1	2	0xC0A5661800000100	0x8324	0x01010100	0x00200000	0x1234	21	0x0000	255	-70	1	12	8533	24.0	0	0.0	44330.0	0	0	0	0	0	0	0	0	0	0	0	115	90	90	40	35	0	0	23.3	33.0	32	11	Raptor_N324
2018-04-13 17:40:08	1	2	0xD3F1661800000100	0x8322	0x01010100	0x00200000	0x1234	21	0x0000	255	-63	1	12	8621	24.0	0	0.0	44330.0	0	0	0	0	0	0	0	0	0	0	0	160	30	30	165	174	0	0	23.5	29.8	32	11	Raptor_N322
2018-04-13 17:40:08	1	0	0x98D7661800000100	0x0000	0x01010100	0x00200000	0x1234	21	0xffff	0	0	1	12	4320	26.0	39	0.0	44330.0	0	0	0	0	0	0	0	0	0	0	0	4	0	0	0	0	0	0	0.0	0.0	32	11	Raptor_C324
2018-04-13 17:43:33	1	2	0xD3F1661800000100	0x8322	0x01010100	0x00200000	0x1234	21	0x0000	255	-90	1	12	8621	24.0	0	0.0	44330.0	0	0	0	0	0	0	0	0	0	0	0	180	38	39	162	171	0	0	23.5	29.9	32	11	Raptor_N322
2018-04-13 17:43:35	1	2	0xAFAA661800000100	0x8320	0x01010100	0x00200000	0x1234	21	0x0000	255	-87	1	12	8445	23.5	0	0.0	44330.0	0	0	0	0	0	0	0	0	0	0	0	238	119	126	106	117	0	0	23.2	33.7	32	11	Raptor_N320
2018-04-13 17:43:38	1	0	0x1AAD661800000100	0x0000	0x01010100	0x00200000	0x1234	21	0xffff	0	0	1	12	4320	25.0	8	0.0	44330.0	0	0	0	0	0	0	0	0	0	0	0	5	0	0	0	0	0	0	0.0	0.0	32	11	Raptor_C322
2018-04-13 17:43:40	1	2	0xB2A5661800000100	0x8326	0x01010100	0x00200000	0x1234	21	0x0000	255	-90	1	12	8137	24.0	0	0.0	44330.0	0	0	0	0	0	0	0	0	0	0	0	111	0	22	76	93	0	0	23.3	32.9	32	11	Raptor_N326
2018-04-13 17:43:50	1	2	0xB2A5661800000100	0x8326	0x01010100	0x00200000	0x1234	21	0x0000	255	-90	1	12	8126	24.0	0	0.0	44330.0	0	0	0	0	0	0	0	0	0	0	0	112	0	22	77	93	0	0	23.3	32.9	32	11	Raptor_N326
2018-04-13 17:43:53	1	2	0xD3F1661800000100	0x8322	0x01010100	0x00200000	0x1234	21	0x0000	255	-90	1	12	8643	24.0	0	0.0	44330.0	0	0	0	0	0	0	0	0	0	0	0	182	40	40	163	171	0	0	23.5	29.9	32	11	Raptor_N322
2018-04-13 17:43:56	1	2	0xAFAA661800000100	0x8320	0x01010100	0x00200000	0x1234	21	0x0000	255	-84	1	12	8445	23.5	0	0.0	44330.0	0	0	0	0	0	0	0	0	0	0	0	240	120	126	108	119	0	0	23.2	33.7	32	11	Raptor_N320
2018-04-13 17:43:58	1	0	0x1AAD661800000100	0x0000	0x01010100	0x00200000	0x1234	21	0xffff	0	0	1	12	4320	25.0	28	0.0	44330.0	0	0	0	0	0	0	0	0	0	0	0	7	0	0	0	0	0	0	0.0	0.0	32	11	Raptor_C322
2018-04-13 17:44:00	1	2	0xB2A5661800000100	0x8326	0x01010100	0x00200000	0x1234	21	0x0000	255	-87	1	12	8137	24.0	0	0.0	44330.0	0	0	0	0	0	0	0	0	0	0	0	113	0	22	78	95	0	0	23.3	32.9	32	11	Raptor_N326
2018-04-13 17:44:01	1	2	0xC0A5661800000100	0x8324	0x01010100	0x00200000	0x1234	21	0x0000	216	-90	1	12	8533	24.0	0	0.0	44330.0	0	0	0	0	0	0	0	0	0	0	0	138	100	103	55	49	0	0	23.3	33.0	32	11	Raptor_N324
2018-04-13 17:46:06	1	2	0xC0A5661800000100	0x8324	0x01010100	0x00200000	0x1234	21	0x0000	255	-69	1	12	8533	24.0	0	0.0	44330.0	0	0	0	0	0	0	0	0	0	0	0	150	104	108	59	54	0	0	23.2	33.1	32	11	Raptor_N324
2018-04-13 17:46:06	1	2	0x29E6000000000000	0xe629	0x00000009	0x00200000	0x1234	21	0x0000	255	-72	1	12	8280	26.0	2250	0.0	44330.0	17578	0	0	0	0	0	0	0	0	0	0	131	66	76	64	72	0	0	23.9	31.0	32	12	uSu_Air_6629
2018-04-13 17:46:06	1	2	0xD3F1661800000100	0x8322	0x01010100	0x00200000	0x1234	21	0x0000	255	-60	1	12	8654	24.0	0	0.0	44330.0	0	0	0	0	0	0	0	0	0	0	0	195	45	46	162	170	0	0	23.5	30.0	32	11	Raptor_N322
2018-04-13 17:46:07	1	0	0x2EAC661800000100	0x0000	0x01010100	0x00200000	0x1234	21	0xffff	0	0	1	12	4320	24.5	29	0.0	44330.0	0	0	0	0	0	0	0	0	0	0	0	2	0	0	0	0	0	0	0.0	0.0	32	11	Raptor_C320
2018-04-13 17:46:10	1	2	0xAFAA661800000100	0x8320	0x01010100	0x00200000	0x1234	21	0x0000	255	-60	1	12	8445	23.5	0	0.0	44330.0	0	0	0	0	0	0	0	0	0	0	0	253	120	126	109	119	0	0	23.1	33.8	32	11	Raptor_N320
2018-04-13 21:21:57	1	0	0x90B5661800000100	0x0000	0x01010100	0x00200000	0x1234	21	0xffff	0	0	1	12	4309	25.5	20	0.0	44330.0	0	0	0	0	0	0	0	0	0	0	0	5	0	0	0	0	0	0	0.0	0.0	32	11	Raptor_C320
2018-04-13 21:22:00	1	2	0xAFAA661800000100	0x8320	0x01010100	0x00200000	0x1234	21	0x0000	255	-59	1	12	8445	22.5	0	0.0	44330.0	0	0	0	0	0	0	0	0	0	0	0	1519	139	143	136	144	0	0	21.9	33.5	32	11	Raptor_N320
2018-04-13 21:22:01	1	2	0xD3F1661800000100	0x8322	0x01010100	0x00200000	0x1234	21	0x0000	255	-60	1	12	8643	22.5	0	0.0	44330.0	0	0	0	0	0	0	0	0	0	0	0	1462	118	123	148	155	0	0	22.2	29.6	32	11	Raptor_N322
2018-04-13 21:22:01	1	2	0xC0A5661800000100	0x8324	0x01010100	0x00200000	0x1234	21	0x0000	255	-71	1	12	8522	22.5	0	0.0	44330.0	0	0	0	0	0	0	0	0	0	0	0	1415	142	147	132	131	0	0	21.9	32.8	32	11	Raptor_N324
2018-04-13 21:22:14	1	2	0xB2A5661800000100	0x8326	0x01010100	0x00200000	0x1234	21	0x0000	255	-60	1	12	8126	22.5	0	0.0	44330.0	0	0	0	0	0	0	0	0	0	0	0	1394	119	131	143	147	0	0	21.9	32.6	32	11	Raptor_N326
2018-04-13 21:22:15	1	2	0x40E6000000000000	0xe640	0x00000009	0x00200000	0x1234	21	0x0000	255	-87	1	12	8093	25.0	2250	0.0	44330.0	8429	0	0	0	0	0	0	0	0	0	0	23	61	71	74	70	0	0	22.8	30.6	32	12	uSu_Air_6640
2018-04-13 21:22:16	1	2	0x29E6000000000000	0xe629	0x00000009	0x00200000	0x1234	21	0x0000	255	-69	1	12	8280	25.0	2250	0.0	44330.0	10329	0	0	0	0	0	0	0	0	0	0	1107	66	77	68	73	0	0	22.8	30.6	32	12	uSu_Air_6629
2018-04-13 21:22:17	1	0	0x90B5661800000100	0x0000	0x01010100	0x00200000	0x1234	21	0xffff	0	0	1	12	4309	25.5	38	0.0	44330.0	0	0	0	0	0	0	0	0	0	0	0	7	0	0	0	0	0	0	0.0	0.0	32	11	Raptor_C320
2018-04-13 21:22:20	1	2	0xAFAA661800000100	0x8320	0x01010100	0x00200000	0x1234	21	0x0000	255	-70	1	12	8434	22.5	0	0.0	44330.0	0	0	0	0	0	0	0	0	0	0	0	1521	138	143	136	144	0	0	21.8	33.4	32	11	Raptor_N320
2018-04-13 21:22:22	1	2	0xC0A5661800000100	0x8324	0x01010100	0x00200000	0x1234	21	0x0000	255	-63	1	12	8522	22.5	0	0.0	44330.0	0	0	0	0	0	0	0	0	0	0	0	1417	143	148	131	130	0	0	21.9	32.8	32	11	Raptor_N324
2018-04-13 21:22:22	1	2	0xD3F1661800000100	0x8322	0x01010100	0x00200000	0x1234	21	0x0000	255	-54	1	12	8621	22.5	0	0.0	44330.0	0	0	0	0	0	0	0	0	0	0	0	1464	118	122	149	155	0	0	22.2	29.6	32	11	Raptor_N322
2018-04-17 23:07:54	1	0	0x2E08671800000100	0x0000	0x01010100	0x00010000	0x1234	16	0xffff	0	0	1	12	4287	25.5	61	0.0	44330.0	0	0	0	0	0	0	0	0	0	0	0	2	52	52	52	52	0	0	0.0	0.0	32	18	Coor_Edu_N153_CH16
2018-05-18 09:15:03	1	0	0xC1B5661800000100	0x0000	0x01010100	0x00200000	0x1234	21	0xffff	0	0	1	12	4320	25.5	24	0.0	44330.0	0	0	0	0	0	0	0	0	0	0	0	7	0	0	0	0	0	0	0.0	0.0	32	11	Raptor_C320
2018-05-18 09:15:13	1	0	0xC1B5661800000100	0x0000	0x01010100	0x00200000	0x1234	21	0xffff	0	0	1	12	4309	25.0	28	0.0	44330.0	0	0	0	0	0	0	0	0	0	0	0	8	0	0	0	0	0	0	0.0	0.0	32	11	Raptor_C320
2018-05-18 09:15:23	1	0	0xC1B5661800000100	0x0000	0x01010100	0x00200000	0x1234	21	0xffff	0	0	1	12	4309	25.5	38	0.0	44330.0	0	0	0	0	0	0	0	0	0	0	0	9	0	0	0	0	0	0	0.0	0.0	32	11	Raptor_C320
2018-05-18 09:15:32	1	0	0xC1B5661800000100	0x0000	0x01010100	0x00200000	0x1234	21	0xffff	0	0	1	12	4320	25.5	19	0.0	44330.0	0	0	0	0	0	0	0	0	0	0	0	10	0	0	0	0	0	0	0.0	0.0	32	11	Raptor_C320
2018-05-18 09:15:42	1	0	0xC1B5661800000100	0x0000	0x01010100	0x00200000	0x1234	21	0xffff	0	0	1	12	4309	25.0	24	0.0	44330.0	0	0	0	0	0	0	0	0	0	0	0	11	0	0	0	0	0	0	0.0	0.0	32	11	Raptor_C320
2018-05-18 09:15:51	1	2	0x92F1661800000100	0x8068	0x01010100	0x00200000	0x1234	21	0x0000	255	-60	1	12	9226	24.0	0	0.0	44330.0	0	0	0	0	0	0	0	0	0	0	0	12343	146	149	159	145	0	0	23.3	42.7	32	10	Raptor_N68
2018-05-18 09:15:52	1	0	0xC1B5661800000100	0x0000	0x01010100	0x00200000	0x1234	21	0xffff	0	0	1	12	4309	25.0	18	0.0	44330.0	0	0	0	0	0	0	0	0	0	0	0	12	0	0	0	0	0	0	0.0	0.0	32	11	Raptor_C320
2018-05-18 09:16:02	1	0	0xC1B5661800000100	0x0000	0x01010100	0x00200000	0x1234	21	0xffff	0	0	1	12	4309	25.0	17	0.0	44330.0	0	0	0	0	0	0	0	0	0	0	0	13	0	0	0	0	0	0	0.0	0.0	32	11	Raptor_C320
2018-05-18 09:16:09	1	2	0x40E6000000000000	0xe640	0x00000009	0x00200000	0x1234	21	0x0000	255	-90	1	12	8159	25.0	2248	0.0	44330.0	-23406	0	0	0	0	0	0	0	0	0	0	3582	68	73	77	70	0	0	23.7	42.7	32	12	uSu_Air_6640
2018-05-18 09:16:12	1	0	0xC1B5661800000100	0x0000	0x01010100	0x00200000	0x1234	21	0xffff	0	0	1	12	4309	25.5	39	0.0	44330.0	0	0	0	0	0	0	0	0	0	0	0	14	0	0	0	0	0	0	0.0	0.0	32	11	Raptor_C320
2018-05-18 09:16:20	1	2	0x40E6000000000000	0xe640	0x00000009	0x00200000	0x1234	21	0x0000	172	-90	1	12	8159	25.0	2248	0.0	44330.0	-23251	0	0	0	0	0	0	0	0	0	0	3583	65	71	75	70	0	0	23.7	42.7	32	12	uSu_Air_6640
2018-05-18 09:16:21	1	0	0xC1B5661800000100	0x0000	0x01010100	0x00200000	0x1234	21	0xffff	0	0	1	12	4309	25.5	18	0.0	44330.0	0	0	0	0	0	0	0	0	0	0	0	15	0	0	0	0	0	0	0.0	0.0	32	11	Raptor_C320
2018-05-18 09:16:31	1	0	0xC1B5661800000100	0x0000	0x01010100	0x00200000	0x1234	21	0xffff	0	0	1	12	4309	25.0	28	0.0	44330.0	0	0	0	0	0	0	0	0	0	0	0	16	0	0	0	0	0	0	0.0	0.0	32	11	Raptor_C320
2018-05-18 09:16:41	1	0	0xC1B5661800000100	0x0000	0x01010100	0x00200000	0x1234	21	0xffff	0	0	1	12	4320	25.0	35	0.0	44330.0	0	0	0	0	0	0	0	0	0	0	0	17	0	0	0	0	0	0	0.0	0.0	32	11	Raptor_C320
2018-05-18 09:16:51	1	0	0xC1B5661800000100	0x0000	0x01010100	0x00200000	0x1234	21	0xffff	0	0	1	12	4309	25.5	38	0.0	44330.0	0	0	0	0	0	0	0	0	0	0	0	18	0	0	0	0	0	0	0.0	0.0	32	11	Raptor_C320
2018-05-18 09:17:01	1	0	0xC1B5661800000100	0x0000	0x01010100	0x00200000	0x1234	21	0xffff	0	0	1	12	4309	25.5	17	0.0	44330.0	0	0	0	0	0	0	0	0	0	0	0	19	0	0	0	0	0	0	0.0	0.0	32	11	Raptor_C320
2018-05-18 09:17:12	1	0	0xC1B5661800000100	0x0000	0x01010100	0x00200000	0x1234	21	0xffff	0	0	1	12	4309	25.5	17	0.0	44330.0	0	0	0	0	0	0	0	0	0	0	0	20	0	0	0	0	0	0	0.0	0.0	32	11	Raptor_C320
2018-05-18 09:17:21	1	0	0xC1B5661800000100	0x0000	0x01010100	0x00200000	0x1234	21	0xffff	0	0	1	12	4309	25.5	24	0.0	44330.0	0	0	0	0	0	0	0	0	0	0	0	21	0	0	0	0	0	0	0.0	0.0	32	11	Raptor_C320
2018-05-18 09:17:31	1	0	0xC1B5661800000100	0x0000	0x01010100	0x00200000	0x1234	21	0xffff	0	0	1	12	4309	25.5	38	0.0	44330.0	0	0	0	0	0	0	0	0	0	0	0	22	0	0	0	0	0	0	0.0	0.0	32	11	Raptor_C320
2018-05-18 09:17:41	1	0	0xC1B5661800000100	0x0000	0x01010100	0x00200000	0x1234	21	0xffff	0	0	1	12	4309	25.5	33	0.0	44330.0	0	0	0	0	0	0	0	0	0	0	0	23	0	0	0	0	0	0	0.0	0.0	32	11	Raptor_C320
2018-05-18 09:17:46	1	2	0x40E6000000000000	0xe640	0x00000009	0x00200000	0x1234	21	0x0000	255	-89	1	12	8159	25.0	2248	0.0	44330.0	-23251	0	0	0	0	0	0	0	0	0	0	3591	66	72	74	71	0	0	23.7	42.7	32	12	uSu_Air_6640
2018-05-18 09:17:51	1	0	0xC1B5661800000100	0x0000	0x01010100	0x00200000	0x1234	21	0xffff	0	0	1	12	4309	25.5	25	0.0	44330.0	0	0	0	0	0	0	0	0	0	0	0	24	0	0	0	0	0	0	0.0	0.0	32	11	Raptor_C320
2018-05-18 09:17:52	1	2	0x92F1661800000100	0x8068	0x01010100	0x00200000	0x1234	21	0x0000	255	-58	1	12	9204	24.0	0	0.0	44330.0	0	0	0	0	0	0	0	0	0	0	0	12345	146	149	159	146	0	0	23.3	42.7	32	10	Raptor_N68
2018-05-18 09:19:34	1	2	0x40E6000000000000	0xe640	0x00000009	0x00200000	0x1234	21	0x0000	255	-89	1	12	8159	25.0	2248	0.0	44330.0	-23251	0	0	0	0	0	0	0	0	0	0	3601	67	74	74	70	0	0	23.6	42.8	32	12	uSu_Air_6640
2018-05-18 09:19:52	1	2	0x92F1661800000100	0x8068	0x01010100	0x00200000	0x1234	21	0x0000	255	-62	1	12	9226	24.0	0	0.0	44330.0	0	0	0	0	0	0	0	0	0	0	0	12347	146	149	159	145	0	0	23.3	42.7	32	10	Raptor_N68
2018-05-18 09:19:54	1	0	0xC1B5661800000100	0x0000	0x01010100	0x00200000	0x1234	21	0xffff	0	0	1	12	4320	25.5	18	0.0	44330.0	0	0	0	0	0	0	0	0	0	0	0	2	0	0	0	0	0	0	0.0	0.0	32	10	Coord_Ch21
